%YAML 1.1
%TAG !u! tag:unity3d.com,2011:
--- !u!1045 &1
EditorBuildSettings:
  m_ObjectHideFlags: 0
  serializedVersion: 2
  m_Scenes:
  - enabled: 1
    path: Assets/_Scenes/StartMenu.unity
    guid: 043349983bfe649478443e8dbc7883a8
  - enabled: 1
    path: Assets/_Scenes/GameSceneOmang.unity
    guid: 4a4121eca53a55a4092aa634eddceac3
  - enabled: 1
    path: Assets/_Scenes/Winning_Q.unity
    guid: 506ca5fea8547c94c8935bd515f50dd9
  m_configObjects:
    com.unity.input.settings: {fileID: 11400000, guid: 9e7be553448fa2546aea5752021cbcf7, type: 2}
